<?xml version="1.0" encoding="UTF-8"?>
<testsuite xmlns:xsi="http://www.w3.org/2001/XMLSchema-instance" xsi:noNamespaceSchemaLocation="https://maven.apache.org/surefire/maven-surefire-plugin/xsd/surefire-test-report.xsd" name="runner.Runner" time="130.936" tests="0" errors="0" skipped="0" failures="0">
  <properties>
    <property name="java.specification.version" value="17"/>
    <property name="sun.jnu.encoding" value="UTF-8"/>
    <property name="java.class.path" value="/Users/vtrn/IdeaProjects/playwright-java-web-ci-cd/target/test-classes:/Users/vtrn/IdeaProjects/playwright-java-web-ci-cd/target/classes:/Users/vtrn/.m2/repository/io/rest-assured/rest-assured/4.5.1/rest-assured-4.5.1.jar:/Users/vtrn/.m2/repository/org/codehaus/groovy/groovy/3.0.9/groovy-3.0.9.jar:/Users/vtrn/.m2/repository/org/codehaus/groovy/groovy-xml/3.0.9/groovy-xml-3.0.9.jar:/Users/vtrn/.m2/repository/org/apache/httpcomponents/httpclient/4.5.13/httpclient-4.5.13.jar:/Users/vtrn/.m2/repository/org/apache/httpcomponents/httpcore/4.4.13/httpcore-4.4.13.jar:/Users/vtrn/.m2/repository/commons-logging/commons-logging/1.2/commons-logging-1.2.jar:/Users/vtrn/.m2/repository/commons-codec/commons-codec/1.11/commons-codec-1.11.jar:/Users/vtrn/.m2/repository/org/apache/httpcomponents/httpmime/4.5.13/httpmime-4.5.13.jar:/Users/vtrn/.m2/repository/org/hamcrest/hamcrest/2.1/hamcrest-2.1.jar:/Users/vtrn/.m2/repository/org/ccil/cowan/tagsoup/tagsoup/1.2.1/tagsoup-1.2.1.jar:/Users/vtrn/.m2/repository/io/rest-assured/json-path/4.5.1/json-path-4.5.1.jar:/Users/vtrn/.m2/repository/org/codehaus/groovy/groovy-json/3.0.9/groovy-json-3.0.9.jar:/Users/vtrn/.m2/repository/io/rest-assured/rest-assured-common/4.5.1/rest-assured-common-4.5.1.jar:/Users/vtrn/.m2/repository/io/rest-assured/xml-path/4.5.1/xml-path-4.5.1.jar:/Users/vtrn/.m2/repository/javax/xml/bind/jaxb-api/2.3.1/jaxb-api-2.3.1.jar:/Users/vtrn/.m2/repository/javax/activation/javax.activation-api/1.2.0/javax.activation-api-1.2.0.jar:/Users/vtrn/.m2/repository/com/fasterxml/jackson/dataformat/jackson-dataformat-yaml/2.9.8/jackson-dataformat-yaml-2.9.8.jar:/Users/vtrn/.m2/repository/org/yaml/snakeyaml/1.23/snakeyaml-1.23.jar:/Users/vtrn/.m2/repository/com/fasterxml/jackson/core/jackson-core/2.9.8/jackson-core-2.9.8.jar:/Users/vtrn/.m2/repository/com/fasterxml/jackson/datatype/jackson-datatype-jsr310/2.9.8/jackson-datatype-jsr310-2.9.8.jar:/Users/vtrn/.m2/repository/com/fasterxml/jackson/core/jackson-annotations/2.9.0/jackson-annotations-2.9.0.jar:/Users/vtrn/.m2/repository/com/fasterxml/jackson/core/jackson-databind/2.9.8/jackson-databind-2.9.8.jar:/Users/vtrn/.m2/repository/com/microsoft/playwright/playwright/1.20.1/playwright-1.20.1.jar:/Users/vtrn/.m2/repository/com/google/code/gson/gson/2.8.6/gson-2.8.6.jar:/Users/vtrn/.m2/repository/org/opentest4j/opentest4j/1.2.0/opentest4j-1.2.0.jar:/Users/vtrn/.m2/repository/com/microsoft/playwright/driver/1.20.1/driver-1.20.1.jar:/Users/vtrn/.m2/repository/com/microsoft/playwright/driver-bundle/1.20.1/driver-bundle-1.20.1.jar:/Users/vtrn/.m2/repository/io/qameta/allure/allure-cucumber3-jvm/2.8.1/allure-cucumber3-jvm-2.8.1.jar:/Users/vtrn/.m2/repository/io/cucumber/cucumber-core/3.0.0/cucumber-core-3.0.0.jar:/Users/vtrn/.m2/repository/io/cucumber/cucumber-html/0.2.7/cucumber-html-0.2.7.jar:/Users/vtrn/.m2/repository/io/cucumber/gherkin/5.0.0/gherkin-5.0.0.jar:/Users/vtrn/.m2/repository/io/cucumber/tag-expressions/1.1.1/tag-expressions-1.1.1.jar:/Users/vtrn/.m2/repository/io/cucumber/cucumber-expressions/5.0.17/cucumber-expressions-5.0.17.jar:/Users/vtrn/.m2/repository/io/cucumber/datatable/1.0.3/datatable-1.0.3.jar:/Users/vtrn/.m2/repository/io/cucumber/datatable-dependencies/1.0.3/datatable-dependencies-1.0.3.jar:/Users/vtrn/.m2/repository/io/qameta/allure/allure-java-commons/2.8.1/allure-java-commons-2.8.1.jar:/Users/vtrn/.m2/repository/io/qameta/allure/allure-model/2.8.1/allure-model-2.8.1.jar:/Users/vtrn/.m2/repository/org/apache/tika/tika-core/1.19.1/tika-core-1.19.1.jar:/Users/vtrn/.m2/repository/org/aspectj/aspectjrt/1.9.1/aspectjrt-1.9.1.jar:/Users/vtrn/.m2/repository/org/jooq/joor-java-8/0.9.9/joor-java-8-0.9.9.jar:/Users/vtrn/.m2/repository/org/slf4j/slf4j-api/1.7.25/slf4j-api-1.7.25.jar:/Users/vtrn/.m2/repository/com/github/automatedowl/allure-environment-writer/1.0.0/allure-environment-writer-1.0.0.jar:/Users/vtrn/.m2/repository/org/testng/testng/6.14.3/testng-6.14.3.jar:/Users/vtrn/.m2/repository/com/beust/jcommander/1.72/jcommander-1.72.jar:/Users/vtrn/.m2/repository/org/apache-extras/beanshell/bsh/2.0b6/bsh-2.0b6.jar:/Users/vtrn/.m2/repository/io/qameta/allure/allure-testng/2.8.1/allure-testng-2.8.1.jar:/Users/vtrn/.m2/repository/io/qameta/allure/allure-descriptions-javadoc/2.8.1/allure-descriptions-javadoc-2.8.1.jar:/Users/vtrn/.m2/repository/commons-io/commons-io/2.6/commons-io-2.6.jar:/Users/vtrn/.m2/repository/com/google/guava/guava/27.0-jre/guava-27.0-jre.jar:/Users/vtrn/.m2/repository/com/google/guava/failureaccess/1.0/failureaccess-1.0.jar:/Users/vtrn/.m2/repository/com/google/guava/listenablefuture/9999.0-empty-to-avoid-conflict-with-guava/listenablefuture-9999.0-empty-to-avoid-conflict-with-guava.jar:/Users/vtrn/.m2/repository/com/google/code/findbugs/jsr305/3.0.2/jsr305-3.0.2.jar:/Users/vtrn/.m2/repository/org/checkerframework/checker-qual/2.5.2/checker-qual-2.5.2.jar:/Users/vtrn/.m2/repository/com/google/errorprone/error_prone_annotations/2.2.0/error_prone_annotations-2.2.0.jar:/Users/vtrn/.m2/repository/com/google/j2objc/j2objc-annotations/1.1/j2objc-annotations-1.1.jar:/Users/vtrn/.m2/repository/org/codehaus/mojo/animal-sniffer-annotations/1.17/animal-sniffer-annotations-1.17.jar:/Users/vtrn/.m2/repository/com/github/javafaker/javafaker/1.0.2/javafaker-1.0.2.jar:/Users/vtrn/.m2/repository/org/apache/commons/commons-lang3/3.5/commons-lang3-3.5.jar:/Users/vtrn/.m2/repository/org/yaml/snakeyaml/1.23/snakeyaml-1.23-android.jar:/Users/vtrn/.m2/repository/com/github/mifmif/generex/1.0.2/generex-1.0.2.jar:/Users/vtrn/.m2/repository/dk/brics/automaton/automaton/1.11-8/automaton-1.11-8.jar:/Users/vtrn/.m2/repository/io/cucumber/cucumber-java/3.0.2/cucumber-java-3.0.2.jar:/Users/vtrn/.m2/repository/io/cucumber/cucumber-junit/3.0.2/cucumber-junit-3.0.2.jar:/Users/vtrn/.m2/repository/junit/junit/4.12/junit-4.12.jar:/Users/vtrn/.m2/repository/org/hamcrest/hamcrest-core/1.3/hamcrest-core-1.3.jar:/Users/vtrn/.m2/repository/org/projectlombok/lombok/1.18.22/lombok-1.18.22.jar:/Users/vtrn/.m2/repository/org/apache/logging/log4j/log4j-core/2.17.2/log4j-core-2.17.2.jar:/Users/vtrn/.m2/repository/org/apache/logging/log4j/log4j-api/2.17.2/log4j-api-2.17.2.jar:/Users/vtrn/.m2/repository/org/aeonbits/owner/owner/1.0.12/owner-1.0.12.jar:/Users/vtrn/.m2/repository/org/apache/maven/surefire/surefire-testng-utils/2.22.0/surefire-testng-utils-2.22.0.jar:/Users/vtrn/.m2/repository/org/apache/maven/surefire/surefire-grouper/2.22.0/surefire-grouper-2.22.0.jar:"/>
    <property name="java.vm.vendor" value="Homebrew"/>
    <property name="sun.arch.data.model" value="64"/>
    <property name="java.vendor.url" value="https://github.com/Homebrew/homebrew-core/issues"/>
    <property name="os.name" value="Mac OS X"/>
    <property name="java.vm.specification.version" value="17"/>
    <property name="sun.java.launcher" value="SUN_STANDARD"/>
    <property name="user.country" value="BR"/>
    <property name="sun.boot.library.path" value="/usr/local/Cellar/openjdk/17.0.2/libexec/openjdk.jdk/Contents/Home/lib"/>
    <property name="sun.java.command" value="/Users/vtrn/IdeaProjects/playwright-java-web-ci-cd/target/surefire/surefirebooter16322080421963481631.jar /Users/vtrn/IdeaProjects/playwright-java-web-ci-cd/target/surefire 2022-06-01T17-06-57_737-jvmRun1 surefire5663140870691556270tmp surefire_01558180164409167946tmp"/>
    <property name="jdk.debug" value="release"/>
    <property name="surefire.test.class.path" value="/Users/vtrn/IdeaProjects/playwright-java-web-ci-cd/target/test-classes:/Users/vtrn/IdeaProjects/playwright-java-web-ci-cd/target/classes:/Users/vtrn/.m2/repository/io/rest-assured/rest-assured/4.5.1/rest-assured-4.5.1.jar:/Users/vtrn/.m2/repository/org/codehaus/groovy/groovy/3.0.9/groovy-3.0.9.jar:/Users/vtrn/.m2/repository/org/codehaus/groovy/groovy-xml/3.0.9/groovy-xml-3.0.9.jar:/Users/vtrn/.m2/repository/org/apache/httpcomponents/httpclient/4.5.13/httpclient-4.5.13.jar:/Users/vtrn/.m2/repository/org/apache/httpcomponents/httpcore/4.4.13/httpcore-4.4.13.jar:/Users/vtrn/.m2/repository/commons-logging/commons-logging/1.2/commons-logging-1.2.jar:/Users/vtrn/.m2/repository/commons-codec/commons-codec/1.11/commons-codec-1.11.jar:/Users/vtrn/.m2/repository/org/apache/httpcomponents/httpmime/4.5.13/httpmime-4.5.13.jar:/Users/vtrn/.m2/repository/org/hamcrest/hamcrest/2.1/hamcrest-2.1.jar:/Users/vtrn/.m2/repository/org/ccil/cowan/tagsoup/tagsoup/1.2.1/tagsoup-1.2.1.jar:/Users/vtrn/.m2/repository/io/rest-assured/json-path/4.5.1/json-path-4.5.1.jar:/Users/vtrn/.m2/repository/org/codehaus/groovy/groovy-json/3.0.9/groovy-json-3.0.9.jar:/Users/vtrn/.m2/repository/io/rest-assured/rest-assured-common/4.5.1/rest-assured-common-4.5.1.jar:/Users/vtrn/.m2/repository/io/rest-assured/xml-path/4.5.1/xml-path-4.5.1.jar:/Users/vtrn/.m2/repository/javax/xml/bind/jaxb-api/2.3.1/jaxb-api-2.3.1.jar:/Users/vtrn/.m2/repository/javax/activation/javax.activation-api/1.2.0/javax.activation-api-1.2.0.jar:/Users/vtrn/.m2/repository/com/fasterxml/jackson/dataformat/jackson-dataformat-yaml/2.9.8/jackson-dataformat-yaml-2.9.8.jar:/Users/vtrn/.m2/repository/org/yaml/snakeyaml/1.23/snakeyaml-1.23.jar:/Users/vtrn/.m2/repository/com/fasterxml/jackson/core/jackson-core/2.9.8/jackson-core-2.9.8.jar:/Users/vtrn/.m2/repository/com/fasterxml/jackson/datatype/jackson-datatype-jsr310/2.9.8/jackson-datatype-jsr310-2.9.8.jar:/Users/vtrn/.m2/repository/com/fasterxml/jackson/core/jackson-annotations/2.9.0/jackson-annotations-2.9.0.jar:/Users/vtrn/.m2/repository/com/fasterxml/jackson/core/jackson-databind/2.9.8/jackson-databind-2.9.8.jar:/Users/vtrn/.m2/repository/com/microsoft/playwright/playwright/1.20.1/playwright-1.20.1.jar:/Users/vtrn/.m2/repository/com/google/code/gson/gson/2.8.6/gson-2.8.6.jar:/Users/vtrn/.m2/repository/org/opentest4j/opentest4j/1.2.0/opentest4j-1.2.0.jar:/Users/vtrn/.m2/repository/com/microsoft/playwright/driver/1.20.1/driver-1.20.1.jar:/Users/vtrn/.m2/repository/com/microsoft/playwright/driver-bundle/1.20.1/driver-bundle-1.20.1.jar:/Users/vtrn/.m2/repository/io/qameta/allure/allure-cucumber3-jvm/2.8.1/allure-cucumber3-jvm-2.8.1.jar:/Users/vtrn/.m2/repository/io/cucumber/cucumber-core/3.0.0/cucumber-core-3.0.0.jar:/Users/vtrn/.m2/repository/io/cucumber/cucumber-html/0.2.7/cucumber-html-0.2.7.jar:/Users/vtrn/.m2/repository/io/cucumber/gherkin/5.0.0/gherkin-5.0.0.jar:/Users/vtrn/.m2/repository/io/cucumber/tag-expressions/1.1.1/tag-expressions-1.1.1.jar:/Users/vtrn/.m2/repository/io/cucumber/cucumber-expressions/5.0.17/cucumber-expressions-5.0.17.jar:/Users/vtrn/.m2/repository/io/cucumber/datatable/1.0.3/datatable-1.0.3.jar:/Users/vtrn/.m2/repository/io/cucumber/datatable-dependencies/1.0.3/datatable-dependencies-1.0.3.jar:/Users/vtrn/.m2/repository/io/qameta/allure/allure-java-commons/2.8.1/allure-java-commons-2.8.1.jar:/Users/vtrn/.m2/repository/io/qameta/allure/allure-model/2.8.1/allure-model-2.8.1.jar:/Users/vtrn/.m2/repository/org/apache/tika/tika-core/1.19.1/tika-core-1.19.1.jar:/Users/vtrn/.m2/repository/org/aspectj/aspectjrt/1.9.1/aspectjrt-1.9.1.jar:/Users/vtrn/.m2/repository/org/jooq/joor-java-8/0.9.9/joor-java-8-0.9.9.jar:/Users/vtrn/.m2/repository/org/slf4j/slf4j-api/1.7.25/slf4j-api-1.7.25.jar:/Users/vtrn/.m2/repository/com/github/automatedowl/allure-environment-writer/1.0.0/allure-environment-writer-1.0.0.jar:/Users/vtrn/.m2/repository/org/testng/testng/6.14.3/testng-6.14.3.jar:/Users/vtrn/.m2/repository/com/beust/jcommander/1.72/jcommander-1.72.jar:/Users/vtrn/.m2/repository/org/apache-extras/beanshell/bsh/2.0b6/bsh-2.0b6.jar:/Users/vtrn/.m2/repository/io/qameta/allure/allure-testng/2.8.1/allure-testng-2.8.1.jar:/Users/vtrn/.m2/repository/io/qameta/allure/allure-descriptions-javadoc/2.8.1/allure-descriptions-javadoc-2.8.1.jar:/Users/vtrn/.m2/repository/commons-io/commons-io/2.6/commons-io-2.6.jar:/Users/vtrn/.m2/repository/com/google/guava/guava/27.0-jre/guava-27.0-jre.jar:/Users/vtrn/.m2/repository/com/google/guava/failureaccess/1.0/failureaccess-1.0.jar:/Users/vtrn/.m2/repository/com/google/guava/listenablefuture/9999.0-empty-to-avoid-conflict-with-guava/listenablefuture-9999.0-empty-to-avoid-conflict-with-guava.jar:/Users/vtrn/.m2/repository/com/google/code/findbugs/jsr305/3.0.2/jsr305-3.0.2.jar:/Users/vtrn/.m2/repository/org/checkerframework/checker-qual/2.5.2/checker-qual-2.5.2.jar:/Users/vtrn/.m2/repository/com/google/errorprone/error_prone_annotations/2.2.0/error_prone_annotations-2.2.0.jar:/Users/vtrn/.m2/repository/com/google/j2objc/j2objc-annotations/1.1/j2objc-annotations-1.1.jar:/Users/vtrn/.m2/repository/org/codehaus/mojo/animal-sniffer-annotations/1.17/animal-sniffer-annotations-1.17.jar:/Users/vtrn/.m2/repository/com/github/javafaker/javafaker/1.0.2/javafaker-1.0.2.jar:/Users/vtrn/.m2/repository/org/apache/commons/commons-lang3/3.5/commons-lang3-3.5.jar:/Users/vtrn/.m2/repository/org/yaml/snakeyaml/1.23/snakeyaml-1.23-android.jar:/Users/vtrn/.m2/repository/com/github/mifmif/generex/1.0.2/generex-1.0.2.jar:/Users/vtrn/.m2/repository/dk/brics/automaton/automaton/1.11-8/automaton-1.11-8.jar:/Users/vtrn/.m2/repository/io/cucumber/cucumber-java/3.0.2/cucumber-java-3.0.2.jar:/Users/vtrn/.m2/repository/io/cucumber/cucumber-junit/3.0.2/cucumber-junit-3.0.2.jar:/Users/vtrn/.m2/repository/junit/junit/4.12/junit-4.12.jar:/Users/vtrn/.m2/repository/org/hamcrest/hamcrest-core/1.3/hamcrest-core-1.3.jar:/Users/vtrn/.m2/repository/org/projectlombok/lombok/1.18.22/lombok-1.18.22.jar:/Users/vtrn/.m2/repository/org/apache/logging/log4j/log4j-core/2.17.2/log4j-core-2.17.2.jar:/Users/vtrn/.m2/repository/org/apache/logging/log4j/log4j-api/2.17.2/log4j-api-2.17.2.jar:/Users/vtrn/.m2/repository/org/aeonbits/owner/owner/1.0.12/owner-1.0.12.jar:/Users/vtrn/.m2/repository/org/apache/maven/surefire/surefire-testng-utils/2.22.0/surefire-testng-utils-2.22.0.jar:/Users/vtrn/.m2/repository/org/apache/maven/surefire/surefire-grouper/2.22.0/surefire-grouper-2.22.0.jar:"/>
    <property name="allure.results.directory" value="target/allure-results"/>
    <property name="sun.cpu.endian" value="little"/>
    <property name="user.home" value="/Users/vtrn"/>
    <property name="user.language" value="en"/>
    <property name="java.specification.vendor" value="Oracle Corporation"/>
    <property name="java.version.date" value="2022-01-18"/>
    <property name="java.home" value="/usr/local/Cellar/openjdk/17.0.2/libexec/openjdk.jdk/Contents/Home"/>
    <property name="basedir" value="/Users/vtrn/IdeaProjects/playwright-java-web-ci-cd"/>
    <property name="file.separator" value="/"/>
    <property name="java.vm.compressedOopsMode" value="Zero based"/>
    <property name="line.separator" value="&#10;"/>
    <property name="java.vm.specification.vendor" value="Oracle Corporation"/>
    <property name="java.specification.name" value="Java Platform API Specification"/>
    <property name="surefire.real.class.path" value="/Users/vtrn/IdeaProjects/playwright-java-web-ci-cd/target/surefire/surefirebooter16322080421963481631.jar"/>
    <property name="sun.management.compiler" value="HotSpot 64-Bit Tiered Compilers"/>
    <property name="java.runtime.version" value="17.0.2+0"/>
    <property name="user.name" value="vtrn"/>
    <property name="path.separator" value=":"/>
    <property name="os.version" value="12.4"/>
    <property name="java.runtime.name" value="OpenJDK Runtime Environment"/>
    <property name="file.encoding" value="UTF-8"/>
    <property name="browser" value="chromium"/>
    <property name="java.vm.name" value="OpenJDK 64-Bit Server VM"/>
    <property name="java.vendor.version" value="Homebrew"/>
    <property name="localRepository" value="/Users/vtrn/.m2/repository"/>
    <property name="java.vendor.url.bug" value="https://github.com/Homebrew/homebrew-core/issues"/>
    <property name="java.io.tmpdir" value="/var/folders/z1/ywnz9xd51zldqff48kj_80psw7vkqx/T/"/>
    <property name="java.version" value="17.0.2"/>
    <property name="user.dir" value="/Users/vtrn/IdeaProjects/playwright-java-web-ci-cd"/>
    <property name="os.arch" value="x86_64"/>
    <property name="java.vm.specification.name" value="Java Virtual Machine Specification"/>
    <property name="env" value="des"/>
    <property name="headless" value="false"/>
    <property name="native.encoding" value="UTF-8"/>
    <property name="java.library.path" value="/Users/vtrn/Library/Java/Extensions:/Library/Java/Extensions:/Network/Library/Java/Extensions:/System/Library/Java/Extensions:/usr/lib/java:."/>
    <property name="java.vm.info" value="mixed mode, sharing"/>
    <property name="java.vendor" value="Homebrew"/>
    <property name="java.vm.version" value="17.0.2+0"/>
    <property name="sun.io.unicode.encoding" value="UnicodeBig"/>
    <property name="java.class.version" value="61.0"/>
  </properties>
</testsuite>