/Users/vtrn/IdeaProjects/playwright-java-web-ci-cd/src/test/java/steps/AbasSteps.java
/Users/vtrn/IdeaProjects/playwright-java-web-ci-cd/src/test/java/runner/Runner.java
/Users/vtrn/IdeaProjects/playwright-java-web-ci-cd/src/test/java/hooks/Hook.java
/Users/vtrn/IdeaProjects/playwright-java-web-ci-cd/src/test/java/steps/IframeSteps.java
/Users/vtrn/IdeaProjects/playwright-java-web-ci-cd/src/test/java/steps/LoginSteps.java
/Users/vtrn/IdeaProjects/playwright-java-web-ci-cd/src/test/java/steps/HandleRequestSteps.java
